R Project on Graduates Placement
…
The high values of salary are justified for these observations as the percentages are high for these students, and the top 4 students have work experience too.

The status variable says whether or not the student is placed. We can use the mutate function to make a new column to obtain a numeric representation of the status variable, where the value not placed is 1 and placed is 2.

## # A tibble: 215 x 16
##    sl_no gender ssc_p ssc_b   hsc_p hsc_b   hsc_s degree_p degree_t workex etest_p
##    <dbl> <chr>  <dbl> <chr>   <dbl> <chr>   <chr>    <dbl> <chr>    <chr>    <dbl>
##  1     1 M       67   Others   91   Others  Comm~     58   Sci&Tech No        55  
##  2     2 M       79.3 Central  78.3 Others  Scie~     77.5 Sci&Tech Yes       86.5
##  3     3 M       65   Central  68   Central Arts      64   Comm&Mg~ No        75  
##  4     4 M       56   Central  52   Central Scie~     52   Sci&Tech No        66  
##  5     5 M       85.8 Central  73.6 Central Comm~     73.3 Comm&Mg~ No        96.8
##  6     6 M       55   Others   49.8 Others  Scie~     67.2 Sci&Tech Yes       55  
##  7     7 F       46   Others   49.2 Others  Comm~     79   Comm&Mg~ No        74.3
##  8     8 M       82   Central  64   Central Scie~     66   Sci&Tech Yes       67  
##  9     9 M       73   Central  79   Central Comm~     72   Comm&Mg~ No        91.3
## 10    10 M       58   Central  70   Central Comm~     61   Comm&Mg~ No        54  
## # ... with 205 more rows, and 5 more variables: specialisation <chr>,
## #   mba_p <dbl>, status <chr>, salary <dbl>, status_int <dbl>
…
B.6. From the above points, we can see that the SSC, HSC and Degree percentages are impacting the placements. Let us see if the average value has the same behavior as each individual entity.

The below graph proves that the behavior of the average is the same as previously mentioned individual entities like SSC, HSC and Degree percentage. Higher the average percentage, better are the placement records.

## # A tibble: 215 x 17
##    sl_no gender ssc_p ssc_b   hsc_p hsc_b   hsc_s degree_p degree_t workex etest_p
##    <dbl> <chr>  <dbl> <chr>   <dbl> <chr>   <chr>    <dbl> <chr>    <chr>    <dbl>
##  1     1 M       67   Others   91   Others  Comm~     58   Sci&Tech No        55  
##  2     2 M       79.3 Central  78.3 Others  Scie~     77.5 Sci&Tech Yes       86.5
##  3     3 M       65   Central  68   Central Arts      64   Comm&Mg~ No        75  
##  4     4 M       56   Central  52   Central Scie~     52   Sci&Tech No        66  
##  5     5 M       85.8 Central  73.6 Central Comm~     73.3 Comm&Mg~ No        96.8
##  6     6 M       55   Others   49.8 Others  Scie~     67.2 Sci&Tech Yes       55  
##  7     7 F       46   Others   49.2 Others  Comm~     79   Comm&Mg~ No        74.3
##  8     8 M       82   Central  64   Central Scie~     66   Sci&Tech Yes       67  
##  9     9 M       73   Central  79   Central Comm~     72   Comm&Mg~ No        91.3
## 10    10 M       58   Central  70   Central Comm~     61   Comm&Mg~ No        54  
## # ... with 205 more rows, and 6 more variables: specialisation <chr>,
## #   mba_p <dbl>, status <chr>, salary <dbl>, status_int <dbl>, avg_ug <dbl>
…
